[
	{
		"emp_code": 123,
		"empName": "Jayanta Kumar Das",
		"empDesig": "Team Lead",
		"numPresentDay": 0,
		"numAbsentDay": 0,
		"numLeave": 0,
		"numHoliday": 0,
		"numLate": 0,
		"numWeeklyOff": 0,
		"numSunday": 0,
		"numAutoDeduct": 0,
		"numExcpeGrant": 0,
		"numFinalDeduct": 0,
		"numTotalDayInMonth": 0,
		"numFinalAttendance": 0,
		"created_by": "1",
    	"modified_by": "1",
		"attendance": [
			
		]
	}
]