{  
         "created_by":"1",
         "modified_by":"1",
         "emp_code":"0",
         "emp_level": "2",
         "personal_details":{  
            "emp_title":"Mr",
            "emp_desig_id":"",
            "process_id":"",
            "loc_id":"",
            "emp_fa_hus_name":"",
            "emp_marital_status":"Unmarried",
            "emp_blood_grp":"",
            "emp_sub_function_id":"",
            "emp_dob":" ",
            "emp_gender":"Male",
            "emp_first":"",
            "emp_mid":"",
            "emp_last":"",
            "emp_add1_id":"",
            "emp_add_2_id":"",
            "emp_city_dist":"",
            "emp_state":"",
            "emp_pin":"",
            "emp_contact_num":"",
            "emp_alt_contact_num":"",
            "is_active":"1",
            "emp_is_active":"1"
         },
         "join_info":{  
            "id":"",
            "emp_master_id":"",
            "emp_interview_date":"",
            "emp_join_date":"",
            "emp_probation_month":"",
            "emp_appl_courier_sent":"",
            "emp_appl_courier_recvd":"",
            "emp_probation_date":""
         },
         "employee_id_info":{  
            "id":"",
            "emp_master_id":"",
            "emp_pan_number":"",
            "emp_voter_number":"",
            "emp_aadhar_number":""
         },
         "employee_bank_info":{  
            "id":"",
            "emp_master_id":"",
            "emp_bank_name":"",
            "emp_bank_ac_number":"",
            "emp_bank_ifsc_code":""
         },
         "employee_pf_esic_info":{  
            "id":"",
            "emp_master_id":"",
            "emp_pf_number":"",
            "emp_esic_ac_number":"",
            "emp_uan_number":""
         },
         "employee_resig_info":{  
            "id":"",
            "emp_master_id":"",
            "emp_resig_reasons":"",
            "emp_resig_date":"",
            "emp_resig_accpt_date":""
         },
         "employee_sal_master_earning":{  
            "id":"",
            "emp_master_id":"",
            "emp_gross_sal":"",
            "emp_basic_sal":"",
            "emp_hra":"",
            "emp_conv_allowance":"",
            "emp_edu_allowance":"",
			"emp_spcl_allowance":"",
            "emp_upkeep_allowance":"",
            "emp_round_off":"",
            "emp_gross_earn":"",
            "emp_other_reimb":""
         },
         "employee_sal_master_deduction":{  
            "id":"",
            "emp_master_id":"",
            "emp_pf_opted":"",
            "emp_pf_contri":"",
            "emp_esic_contri":"",
            "emp_wb_prof_tax":""
         },
         "employee_sal_master_computation":{  
            "id":"",
            "emp_master_id":"",
            "emp_sal_in_hand":"",
            "emp_tot_ctc":""
         },
         "employee_sal_company_contri":{  
            "id":"",
            "emp_master_id":"",
            "emp_pf_contri":"",
            "emp_pension_contri":"",
            "emp_edli_contri":"",
            "emp_adm_charge":"",
            "emp_adm_charge_edli":"",
            "emp_esi_contri":""
         }
      }